Order,Operation-Number,Operation-Description,Machine
103051,10,SHEARING,GAS CUTT
103051,50,EYE ROLLING -1,E-ROLL-1
103051,60,EYE ROLLING -2,E-ROLL-1
103051,70,EYE REAMING,E-REAM
103051,80,COLD CENTER HOLE PUNCHING,C-PNCH-1
103051,150,READY FOR HT,RHT
103051,160,HEAT TREATMENT (MAIN FURNACE),WBF-5
103051,170,DISTORTION CORRECTION -2,DC-AHT
103051,180,SHOT PEENING,SP-04
103051,190,BUSH FITTING,B-FTG
103051,210,EYE GRINDING,EYE-RG
103051,250,BLACK PRIMER COATING,P-COAT-1
